…
# Combine Data

We combined all methods to create one table with daily hours fished for each trap. We added rows with 0 effort for days that where there is no trapping data. 



## Summarized by week

We grouped hours fished data by site, subsite, week, and year and summarized to come up with a weekly hours fished dataset. We capped hours fished to 168 for each stream, assuming that a single trap could not run for more hours than there are in a week. Before 2005 trap data is not available for Knights Landing, we assume 168 hours when trap data is missing.  


```
## # A tibble: 243 × 5
## # Groups:   year, stream, site [41]
##     year stream           site                    subsite     n
##    <int> <chr>            <chr>                   <chr>   <int>
##  1  1994 sacramento river red bluff diversion dam gate 1      5
##  2  1994 sacramento river red bluff diversion dam gate 10     4
##  3  1994 sacramento river red bluff diversion dam gate 11     6
##  4  1994 sacramento river red bluff diversion dam gate 3     12
##  5  1994 sacramento river red bluff diversion dam gate 5     16
##  6  1994 sacramento river red bluff diversion dam gate 7     11
##  7  1994 sacramento river red bluff diversion dam gate 9     16
##  8  1995 sacramento river knights landing         8.3         3
##  9  1995 sacramento river knights landing         8.4         7
## 10  1995 sacramento river red bluff diversion dam gate 1     33
## # ℹ 233 more rows
```
…
