Combine Data • SRJPEdata
…
Summarized by week

We grouped hours fished data by site, subsite, week, and year and summarized to come up with a weekly hours fished dataset. We capped hours fished to 168 for each stream, assuming that a single trap could not run for more hours than there are in a week. Before 2005 trap data is not available for Knights Landing, we assume 168 hours when trap data is missing.

#> # A tibble: 26 × 5
#> # Groups:   year, stream, site [17]
#>     year stream           site            subsite                n
#>    <int> <chr>            <chr>           <chr>              <int>
#>  1  2002 sacramento river knights landing knights landing       14
#>  2  2003 sacramento river knights landing knights landing       45
#>  3  2004 sacramento river knights landing knights landing       37
#>  4  2005 sacramento river knights landing knights landing       39
#>  5  2006 sacramento river knights landing knights landing       26
#>  6  2015 butte creek      okie dam        okie dam 1            10
#>  7  2016 butte creek      okie dam        okie dam 1            24
#>  8  2017 butte creek      okie dam        okie dam 1             9
#>  9  2017 butte creek      okie dam        okie dam fyke trap     9
#> 10  2018 butte creek      okie dam        okie dam 1            25
#> # ℹ 16 more rows
…
