Calculating Hours Fished • SRJPEdata
…
Summarized by week

We grouped hours fished data by site, subsite, week, and year and
summarized to come up with a weekly hours fished dataset. We capped
hours fished to 168 for each stream, assuming that a single trap could
not run for more hours than there are in a week. Before 2005 trap data
is not available for Knights Landing, we assume 168 hours when trap data
is missing.

## # A tibble: 189 × 5
## # Groups:   year, stream, site [138]
##     year stream           site            subsite        n
##    <dbl> <chr>            <chr>           <chr>      <int>
##  1  1992 deer creek       deer creek      deer creek     6
##  2  1994 deer creek       deer creek      deer creek    13
##  3  1995 deer creek       deer creek      deer creek    16
##  4  1995 mill creek       mill creek      mill creek     2
##  5  1995 sacramento river knights landing 8.3            3
##  6  1995 sacramento river knights landing 8.4            7
##  7  1996 deer creek       deer creek      deer creek    27
##  8  1996 mill creek       mill creek      mill creek    24
##  9  1996 sacramento river knights landing 8.3           40
## 10  1996 sacramento river knights landing 8.4           40
## # ℹ 179 more rows
…
